<?xml version="1.0" encoding="UTF-8" standalone="no"?>
<!-- Created with Inkscape (http://www.inkscape.org/) -->

<svg
   xmlns:dc="http://purl.org/dc/elements/1.1/"
   xmlns:cc="http://creativecommons.org/ns#"
   xmlns:rdf="http://www.w3.org/1999/02/22-rdf-syntax-ns#"
   xmlns:svg="http://www.w3.org/2000/svg"
   xmlns="http://www.w3.org/2000/svg"
   xmlns:sodipodi="http://sodipodi.sourceforge.net/DTD/sodipodi-0.dtd"
   xmlns:inkscape="http://www.inkscape.org/namespaces/inkscape"
   width="600"
   height="600"
   viewBox="0 0 158.75 158.75"
   version="1.1"
   id="svg8"
   sodipodi:docname="xyz_point_angle_figure_1.svg"
   inkscape:version="0.92.1 r">
  <defs
     id="defs2" />
  <sodipodi:namedview
     id="base"
     pagecolor="#ffffff"
     bordercolor="#666666"
     borderopacity="1.0"
     inkscape:pageopacity="0.0"
     inkscape:pageshadow="2"
     inkscape:zoom="1.3399674"
     inkscape:cx="156.21285"
     inkscape:cy="349.01648"
     inkscape:document-units="cm"
     inkscape:current-layer="layer1"
     showgrid="false"
     units="px"
     inkscape:showpageshadow="false"
     inkscape:snap-bbox="true"
     inkscape:bbox-paths="true"
     inkscape:bbox-nodes="true"
     inkscape:snap-bbox-midpoints="true"
     inkscape:snap-bbox-edge-midpoints="true"
     inkscape:object-paths="true"
     inkscape:snap-intersection-paths="true"
     inkscape:snap-midpoints="true"
     inkscape:snap-smooth-nodes="true"
     inkscape:snap-global="false"
     inkscape:window-width="1920"
     inkscape:window-height="1009"
     inkscape:window-x="0"
     inkscape:window-y="34"
     inkscape:window-maximized="1"
     showguides="false" />
  <metadata
     id="metadata5">
    <rdf:RDF>
      <cc:Work
         rdf:about="">
        <dc:format>image/svg+xml</dc:format>
        <dc:type
           rdf:resource="http://purl.org/dc/dcmitype/StillImage" />
        <dc:title></dc:title>
      </cc:Work>
    </rdf:RDF>
  </metadata>
  <g
     inkscape:label="Layer 1"
     inkscape:groupmode="layer"
     id="layer1"
     transform="translate(0,-138.25002)">
    <g
       id="g4586"
       transform="matrix(1.5,0,0,1.5,2.5e-6,-148.50001)">
      <g
         transform="matrix(1.6,0,0,1.6,-3.88e-6,-178.19999)"
         id="g5079">
        <path
           style="opacity:1;fill:#f9f9f9;fill-opacity:1;stroke:#cccccc;stroke-width:0.13124999;stroke-linecap:round;stroke-linejoin:round;stroke-miterlimit:4;stroke-dasharray:none;stroke-opacity:1"
           d="m 22.385721,270.06622 h 4.504443 v 4.50444 h -4.504443 z"
           id="rect4726"
           inkscape:connector-curvature="0" />
        <path
           inkscape:connector-curvature="0"
           style="color:#000000;font-style:normal;font-variant:normal;font-weight:normal;font-stretch:normal;font-size:medium;line-height:normal;font-family:sans-serif;font-variant-ligatures:normal;font-variant-position:normal;font-variant-caps:normal;font-variant-numeric:normal;font-variant-alternates:normal;font-feature-settings:normal;text-indent:0;text-align:start;text-decoration:none;text-decoration-line:none;text-decoration-style:solid;text-decoration-color:#000000;letter-spacing:normal;word-spacing:normal;text-transform:none;writing-mode:lr-tb;direction:ltr;text-orientation:mixed;dominant-baseline:auto;baseline-shift:baseline;text-anchor:start;white-space:normal;shape-padding:0;clip-rule:nonzero;display:inline;overflow:visible;visibility:visible;opacity:1;isolation:auto;mix-blend-mode:normal;color-interpolation:sRGB;color-interpolation-filters:linearRGB;solid-color:#000000;solid-opacity:1;vector-effect:none;fill:#cccccc;fill-opacity:1;fill-rule:evenodd;stroke:none;stroke-width:0.26458335;stroke-linecap:butt;stroke-linejoin:miter;stroke-miterlimit:4;stroke-dasharray:none;stroke-dashoffset:0;stroke-opacity:1;color-rendering:auto;image-rendering:auto;shape-rendering:auto;text-rendering:auto;enable-background:accumulate"
           d="m 22.514227,270.06621 -0.128521,0.12845 v 0.37464 l 0.503155,-0.50316 z m 0.93043,0 -1.058953,1.05895 v 0.37463 l 1.433584,-1.43358 z m 0.931111,0 -1.990064,1.99006 v 0.37464 l 2.364697,-2.3647 z m 0.93043,0 -2.920494,2.92048 v 0.37464 l 3.295125,-3.29512 z m 0.931112,0 -3.851606,3.8516 v 0.37464 l 4.226239,-4.22624 z m 0.652873,0.27755 -4.226923,4.22693 h 0.374633 l 3.85229,-3.8523 z m 0,0.93112 -3.29581,3.29581 h 0.374632 l 2.921178,-2.92119 z m 0,0.93042 -2.365382,2.36539 h 0.374633 l 1.990749,-1.99076 z m 0,0.93112 -1.43427,1.43427 h 0.374633 l 1.059637,-1.05965 z m 0,0.93111 -0.503157,0.50316 h 0.374633 l 0.128521,-0.12846 z"
           id="path4732" />
        <g
           id="g5036">
          <text
             id="text4491"
             y="266.92874"
             x="63.289623"
             style="font-style:normal;font-variant:normal;font-weight:normal;font-stretch:normal;font-size:14.00086784px;line-height:8.75054169px;font-family:monospace;-inkscape-font-specification:monospace;letter-spacing:0px;word-spacing:0px;fill:#666666;fill-opacity:1;stroke:none;stroke-width:0.35002169px;stroke-linecap:butt;stroke-linejoin:miter;stroke-opacity:1"
             xml:space="preserve"><tspan
               style="font-style:normal;font-variant:normal;font-weight:normal;font-stretch:normal;font-size:3.26686931px;font-family:sans-serif;-inkscape-font-specification:sans-serif;fill:#666666;stroke-width:0.35002169px"
               y="266.92874"
               x="63.289623"
               id="tspan4489"
               sodipodi:role="line">x</tspan></text>
          <text
             xml:space="preserve"
             style="font-style:normal;font-variant:normal;font-weight:normal;font-stretch:normal;font-size:14.00086784px;line-height:8.75054169px;font-family:monospace;-inkscape-font-specification:monospace;letter-spacing:0px;word-spacing:0px;fill:#666666;fill-opacity:1;stroke:none;stroke-width:0.35002169px;stroke-linecap:butt;stroke-linejoin:miter;stroke-opacity:1"
             x="29.605862"
             y="233.50676"
             id="text4495"><tspan
               sodipodi:role="line"
               id="tspan4493"
               x="29.605862"
               y="233.50676"
               style="font-style:normal;font-variant:normal;font-weight:normal;font-stretch:normal;font-size:3.26686931px;font-family:sans-serif;-inkscape-font-specification:sans-serif;fill:#666666;stroke-width:0.35002169px">y</tspan></text>
          <g
             id="g5006">
            <path
               style="fill:none;fill-rule:evenodd;stroke:#cccccc;stroke-width:0.39447445;stroke-linecap:round;stroke-linejoin:round;stroke-miterlimit:4;stroke-dasharray:none;stroke-opacity:1"
               d="m 33.072915,231.05422 v 65.74574"
               id="path4485"
               inkscape:connector-curvature="0"
               sodipodi:nodetypes="cc" />
            <path
               sodipodi:nodetypes="cc"
               inkscape:connector-curvature="0"
               id="path4518"
               d="m 54.137855,232.11256 v 63.62907"
               style="fill:none;fill-rule:evenodd;stroke:#cccccc;stroke-width:0.13149148;stroke-linecap:round;stroke-linejoin:round;stroke-miterlimit:4;stroke-dasharray:none;stroke-opacity:1" />
            <path
               style="fill:none;fill-rule:evenodd;stroke:#cccccc;stroke-width:0.13149148;stroke-linecap:round;stroke-linejoin:round;stroke-miterlimit:4;stroke-dasharray:none;stroke-opacity:1"
               d="m 59.371212,232.11256 v 63.62907"
               id="path4520"
               inkscape:connector-curvature="0"
               sodipodi:nodetypes="cc" />
            <path
               sodipodi:nodetypes="cc"
               inkscape:connector-curvature="0"
               id="path4524"
               d="m 22.474694,232.11256 v 63.62907"
               style="fill:none;fill-rule:evenodd;stroke:#cccccc;stroke-width:0.13149148;stroke-linecap:round;stroke-linejoin:round;stroke-miterlimit:4;stroke-dasharray:none;stroke-opacity:1" />
            <path
               style="fill:none;fill-rule:evenodd;stroke:#cccccc;stroke-width:0.13149148;stroke-linecap:round;stroke-linejoin:round;stroke-miterlimit:4;stroke-dasharray:none;stroke-opacity:1"
               d="m 6.7746199,232.11256 v 63.62907"
               id="path4526"
               inkscape:connector-curvature="0"
               sodipodi:nodetypes="cc" />
            <path
               style="fill:none;fill-rule:evenodd;stroke:#cccccc;stroke-width:0.13149148;stroke-linecap:round;stroke-linejoin:round;stroke-miterlimit:4;stroke-dasharray:none;stroke-opacity:1"
               d="m 43.671137,232.11256 v 63.62907"
               id="path4530"
               inkscape:connector-curvature="0"
               sodipodi:nodetypes="cc" />
            <path
               sodipodi:nodetypes="cc"
               inkscape:connector-curvature="0"
               id="path4532"
               d="m 38.437779,232.11256 v 63.62907"
               style="fill:none;fill-rule:evenodd;stroke:#cccccc;stroke-width:0.13149148;stroke-linecap:round;stroke-linejoin:round;stroke-miterlimit:4;stroke-dasharray:none;stroke-opacity:1" />
            <path
               style="fill:none;fill-rule:evenodd;stroke:#cccccc;stroke-width:0.13149148;stroke-linecap:round;stroke-linejoin:round;stroke-miterlimit:4;stroke-dasharray:none;stroke-opacity:1"
               d="m 12.007977,232.11256 v 63.62907"
               id="path4534"
               inkscape:connector-curvature="0"
               sodipodi:nodetypes="cc" />
            <path
               style="fill:none;fill-rule:evenodd;stroke:#cccccc;stroke-width:0.13149148;stroke-linecap:round;stroke-linejoin:round;stroke-miterlimit:4;stroke-dasharray:none;stroke-opacity:1"
               d="m 48.904495,232.11256 v 63.62907"
               id="path4602"
               inkscape:connector-curvature="0"
               sodipodi:nodetypes="cc" />
            <path
               style="fill:none;fill-rule:evenodd;stroke:#cccccc;stroke-width:0.13149148;stroke-linecap:round;stroke-linejoin:round;stroke-miterlimit:4;stroke-dasharray:none;stroke-opacity:1"
               d="m 27.708052,232.11256 v 63.62907"
               id="path4604"
               inkscape:connector-curvature="0"
               sodipodi:nodetypes="cc" />
            <path
               sodipodi:nodetypes="cc"
               inkscape:connector-curvature="0"
               id="path4606"
               d="m 17.241335,232.11256 v 63.62907"
               style="fill:none;fill-rule:evenodd;stroke:#cccccc;stroke-width:0.13149148;stroke-linecap:round;stroke-linejoin:round;stroke-miterlimit:4;stroke-dasharray:none;stroke-opacity:1" />
            <g
               transform="matrix(0,1.3149148,-1.3149148,0,423.60264,263.72983)"
               id="g4959">
              <path
                 sodipodi:nodetypes="cc"
                 inkscape:connector-curvature="0"
                 id="path4929"
                 d="m 16.170018,272.80489 v 48.39026"
                 style="fill:none;fill-rule:evenodd;stroke:#cccccc;stroke-width:0.1;stroke-linecap:round;stroke-linejoin:round;stroke-miterlimit:4;stroke-dasharray:none;stroke-opacity:1" />
              <path
                 style="fill:none;fill-rule:evenodd;stroke:#cccccc;stroke-width:0.1;stroke-linecap:round;stroke-linejoin:round;stroke-miterlimit:4;stroke-dasharray:none;stroke-opacity:1"
                 d="m 20.150015,272.80489 v 48.39026"
                 id="path4931"
                 inkscape:connector-curvature="0"
                 sodipodi:nodetypes="cc" />
              <path
                 sodipodi:nodetypes="cc"
                 inkscape:connector-curvature="0"
                 id="path4933"
                 d="m -7.9099918,272.80489 v 48.39026"
                 style="fill:none;fill-rule:evenodd;stroke:#cccccc;stroke-width:0.1;stroke-linecap:round;stroke-linejoin:round;stroke-miterlimit:4;stroke-dasharray:none;stroke-opacity:1" />
              <path
                 style="fill:none;fill-rule:evenodd;stroke:#cccccc;stroke-width:0.1;stroke-linecap:round;stroke-linejoin:round;stroke-miterlimit:4;stroke-dasharray:none;stroke-opacity:1"
                 d="m -19.849985,272.80489 v 48.39026"
                 id="path4935"
                 inkscape:connector-curvature="0"
                 sodipodi:nodetypes="cc" />
              <path
                 style="fill:none;fill-rule:evenodd;stroke:#cccccc;stroke-width:0.1;stroke-linecap:round;stroke-linejoin:round;stroke-miterlimit:4;stroke-dasharray:none;stroke-opacity:1"
                 d="m 8.2100209,272.80489 v 48.39026"
                 id="path4937"
                 inkscape:connector-curvature="0"
                 sodipodi:nodetypes="cc" />
              <path
                 sodipodi:nodetypes="cc"
                 inkscape:connector-curvature="0"
                 id="path4939"
                 d="m 4.2300228,272.80489 v 48.39026"
                 style="fill:none;fill-rule:evenodd;stroke:#cccccc;stroke-width:0.1;stroke-linecap:round;stroke-linejoin:round;stroke-miterlimit:4;stroke-dasharray:none;stroke-opacity:1" />
              <path
                 style="fill:none;fill-rule:evenodd;stroke:#cccccc;stroke-width:0.1;stroke-linecap:round;stroke-linejoin:round;stroke-miterlimit:4;stroke-dasharray:none;stroke-opacity:1"
                 d="m -15.869988,272.80489 v 48.39026"
                 id="path4941"
                 inkscape:connector-curvature="0"
                 sodipodi:nodetypes="cc" />
              <path
                 style="fill:none;fill-rule:evenodd;stroke:#cccccc;stroke-width:0.1;stroke-linecap:round;stroke-linejoin:round;stroke-miterlimit:4;stroke-dasharray:none;stroke-opacity:1"
                 d="m 12.190019,272.80489 v 48.39026"
                 id="path4943"
                 inkscape:connector-curvature="0"
                 sodipodi:nodetypes="cc" />
              <path
                 style="fill:none;fill-rule:evenodd;stroke:#cccccc;stroke-width:0.1;stroke-linecap:round;stroke-linejoin:round;stroke-miterlimit:4;stroke-dasharray:none;stroke-opacity:1"
                 d="m -3.9299937,272.80489 v 48.39026"
                 id="path4945"
                 inkscape:connector-curvature="0"
                 sodipodi:nodetypes="cc" />
              <path
                 sodipodi:nodetypes="cc"
                 inkscape:connector-curvature="0"
                 id="path4947"
                 d="m -11.88999,272.80489 v 48.39026"
                 style="fill:none;fill-rule:evenodd;stroke:#cccccc;stroke-width:0.1;stroke-linecap:round;stroke-linejoin:round;stroke-miterlimit:4;stroke-dasharray:none;stroke-opacity:1" />
            </g>
            <path
               sodipodi:nodetypes="cc"
               inkscape:connector-curvature="0"
               id="path4621"
               d="M 65.945788,263.92709 H 0.2000481"
               style="fill:none;fill-rule:evenodd;stroke:#cccccc;stroke-width:0.39447445;stroke-linecap:round;stroke-linejoin:round;stroke-miterlimit:4;stroke-dasharray:none;stroke-opacity:1" />
          </g>
        </g>
        <path
           style="fill:none;fill-rule:evenodd;stroke:#000000;stroke-width:0.35002169px;stroke-linecap:butt;stroke-linejoin:miter;stroke-opacity:1"
           d="m 22.474694,258.56224 v 15.96308 h 26.429803 v 0"
           id="path4706"
           inkscape:connector-curvature="0"
           sodipodi:nodetypes="cccc" />
        <text
           xml:space="preserve"
           style="font-style:normal;font-weight:normal;font-size:5.13365173px;line-height:8.75054169px;font-family:sans-serif;letter-spacing:0px;word-spacing:0px;fill:#000000;fill-opacity:1;stroke:none;stroke-width:0.35002169px;stroke-linecap:butt;stroke-linejoin:miter;stroke-opacity:1"
           x="17.241337"
           y="281.44882"
           id="text4710"><tspan
             sodipodi:role="line"
             id="tspan4708"
             x="17.241337"
             y="281.44882"
             style="font-size:3.26686931px;stroke-width:0.35002169px">(-2, -2)</tspan></text>
        <text
           id="text4714"
           y="255.59615"
           x="17.241337"
           style="font-style:normal;font-weight:normal;font-size:5.13365173px;line-height:8.75054169px;font-family:sans-serif;letter-spacing:0px;word-spacing:0px;fill:#000000;fill-opacity:1;stroke:none;stroke-width:0.35002169px;stroke-linecap:butt;stroke-linejoin:miter;stroke-opacity:1"
           xml:space="preserve"><tspan
             style="font-size:3.26686931px;stroke-width:0.35002169px"
             y="255.59615"
             x="17.241337"
             id="tspan4712"
             sodipodi:role="line">(-2, 1)</tspan></text>
        <text
           id="text4718"
           y="281.44882"
           x="43.594955"
           style="font-style:normal;font-weight:normal;font-size:5.13365173px;line-height:8.75054169px;font-family:sans-serif;letter-spacing:0px;word-spacing:0px;fill:#000000;fill-opacity:1;stroke:none;stroke-width:0.35002169px;stroke-linecap:butt;stroke-linejoin:miter;stroke-opacity:1"
           xml:space="preserve"><tspan
             style="font-size:3.26686931px;stroke-width:0.35002169px"
             y="281.44882"
             x="43.594955"
             id="tspan4716"
             sodipodi:role="line">(3, -2)</tspan></text>
        <circle
           style="opacity:1;fill:#ff2a2a;fill-opacity:1;stroke:none;stroke-width:0.13229167;stroke-linecap:round;stroke-linejoin:round;stroke-miterlimit:4;stroke-dasharray:none;stroke-opacity:1"
           id="path4720"
           r="0.87263632"
           cy="274.52591"
           cx="22.474213" />
        <path
           d="m 23.346849,258.46939 a 0.87263632,0.87263632 0 0 1 -0.815563,0.87077 0.87263632,0.87263632 0 0 1 -0.922244,-0.75687 0.87263632,0.87263632 0 0 1 0.694928,-0.96977 0.87263632,0.87263632 0 0 1 1.013145,0.63002"
           sodipodi:open="true"
           sodipodi:end="6.0213859"
           sodipodi:start="0"
           sodipodi:ry="0.87263632"
           sodipodi:rx="0.87263632"
           sodipodi:cy="258.46939"
           sodipodi:cx="22.474213"
           sodipodi:type="arc"
           id="path4722"
           style="opacity:1;fill:#55ddff;fill-opacity:1;stroke:none;stroke-width:0.13229167;stroke-linecap:round;stroke-linejoin:round;stroke-miterlimit:4;stroke-dasharray:none;stroke-opacity:1" />
        <path
           style="opacity:1;fill:#55ddff;fill-opacity:1;stroke:none;stroke-width:0.13229167;stroke-linecap:round;stroke-linejoin:round;stroke-miterlimit:4;stroke-dasharray:none;stroke-opacity:1"
           id="path4724"
           sodipodi:type="arc"
           sodipodi:cx="48.915096"
           sodipodi:cy="274.52591"
           sodipodi:rx="0.87263632"
           sodipodi:ry="0.87263632"
           sodipodi:start="0"
           sodipodi:end="6.0213859"
           sodipodi:open="true"
           d="m 49.787733,274.52591 a 0.87263632,0.87263632 0 0 1 -0.815564,0.87077 0.87263632,0.87263632 0 0 1 -0.922244,-0.75687 0.87263632,0.87263632 0 0 1 0.694928,-0.96977 0.87263632,0.87263632 0 0 1 1.013145,0.63001" />
      </g>
      <path
         sodipodi:nodetypes="cc"
         inkscape:connector-curvature="0"
         id="path5081"
         d="m 58.874606,238.57043 c -9.028425,0 -13.661739,6.46696 -15.695546,13.62314"
         style="fill:none;fill-rule:evenodd;stroke:#ff2a2a;stroke-width:0.79999995;stroke-linecap:round;stroke-linejoin:round;stroke-miterlimit:4;stroke-dasharray:none;stroke-opacity:1" />
      <path
         style="fill:none;fill-rule:evenodd;stroke:#ff2a2a;stroke-width:0.79999995;stroke-linecap:round;stroke-linejoin:round;stroke-miterlimit:4;stroke-dasharray:none;stroke-opacity:1"
         d="m 41.490487,248.5039 1.43848,4.12676 3.965152,-1.01298"
         id="path5083"
         inkscape:connector-curvature="0"
         sodipodi:nodetypes="ccc" />
      <text
         id="text5087"
         y="240.24661"
         x="60.92968"
         style="font-style:normal;font-weight:normal;font-size:5.2966466px;line-height:9.02837372px;font-family:sans-serif;letter-spacing:0px;word-spacing:0px;fill:#ff2a2a;fill-opacity:1;stroke:none;stroke-width:0.36113498px;stroke-linecap:butt;stroke-linejoin:miter;stroke-opacity:1"
         xml:space="preserve"><tspan
           style="font-size:6.3499999px;fill:#ff2a2a;fill-opacity:1;stroke-width:0.36113498px"
           y="240.24661"
           x="60.92968"
           id="tspan5085"
           sodipodi:role="line">angle = 90°</tspan></text>
      <text
         id="text55"
         y="236.41023"
         x="30.856419"
         style="font-style:normal;font-weight:normal;font-size:3.88055563px;line-height:6.61458254px;font-family:sans-serif;letter-spacing:0px;word-spacing:0px;fill:#000000;fill-opacity:1;stroke:none;stroke-width:0.26458332px;stroke-linecap:butt;stroke-linejoin:miter;stroke-opacity:1"
         xml:space="preserve"><tspan
           style="stroke-width:0.26458332px"
           y="236.41023"
           x="30.856419"
           id="tspan53"
           sodipodi:role="line">a</tspan></text>
      <text
         xml:space="preserve"
         style="font-style:normal;font-weight:normal;font-size:3.88055563px;line-height:6.61458254px;font-family:sans-serif;letter-spacing:0px;word-spacing:0px;fill:#000000;fill-opacity:1;stroke:none;stroke-width:0.26458332px;stroke-linecap:butt;stroke-linejoin:miter;stroke-opacity:1"
         x="77.21064"
         y="266.35034"
         id="text59"><tspan
           sodipodi:role="line"
           id="tspan57"
           x="77.21064"
           y="266.35034"
           style="stroke-width:0.26458332px">c</tspan></text>
      <text
         id="text63"
         y="266.35034"
         x="31.759769"
         style="font-style:normal;font-weight:normal;font-size:3.88055563px;line-height:6.61458254px;font-family:sans-serif;letter-spacing:0px;word-spacing:0px;fill:#000000;fill-opacity:1;stroke:none;stroke-width:0.26458332px;stroke-linecap:butt;stroke-linejoin:miter;stroke-opacity:1"
         xml:space="preserve"><tspan
           style="stroke-width:0.26458332px"
           y="266.35034"
           x="31.759769"
           id="tspan61"
           sodipodi:role="line">this</tspan></text>
    </g>
  </g>
</svg>
